{
    "KPlugin": {
        "Authors": [
            {
                "Email": "mvourlakos@gmail.com",
                "Name": "Michail Vourlakos",
                "Name[az]": "Michail Vourlakos",
                "Name[ca@valencia]": "Michail Vourlakos",
                "Name[ca]": "Michail Vourlakos",
                "Name[en_GB]": "Michail Vourlakos",
                "Name[es]": "Michail Vourlakos",
                "Name[fr]": "Michail Vourlakos",
                "Name[it]": "Michail Vourlakos",
                "Name[ko]": "Michail Vourlakos",
                "Name[nl]": "Michail Vourlakos",
                "Name[pt]": "Michail Vourlakos",
                "Name[pt_BR]": "Michail Vourlakos",
                "Name[sl]": "Michail Vourlakos",
                "Name[sv]": "Michail Vourlakos",
                "Name[tr]": "Michail Vourlakos",
                "Name[uk]": "Михаїл Ворлакос (Michail Vourlakos)",
                "Name[x-test]": "xxMichail Vourlakosxx",
                "Name[zh_CN]": "Michail Vourlakos"
            }
        ],
        "Dependencies": [],
        "Description": "The latte menu that normally shows on right-click",
        "Description[az]": "Latte menyusu sağ düyməyə vurduqda normal göstərilir",
        "Description[ca@valencia]": "El menú Latte que es mostra normalment amb un clic del botó dret",
        "Description[ca]": "El menú Latte que es mostra normalment amb un clic del botó dret",
        "Description[en_GB]": "The Latte menu that normally shows on right-click",
        "Description[es]": "Este es el menú de Latte que normalmente se muestra tras un clic derecho",
        "Description[fr]": "Le menu de Latte s'affichant normalement sur un clic droit",
        "Description[it]": "Il menu di Latte che normalmente viene mostrato al clic destro",
        "Description[ko]": "오른쪽 클릭 시 일반적으로 표시되는 Latte 메뉴",
        "Description[nl]": "Het menu van latte dat normaal getoond wordt bij rechtsklikken",
        "Description[pt]": "O menu do Latte que normalmente aparece com o botão direito do rato",
        "Description[pt_BR]": "O menu do Latte que normalmente aparece ao clicar com o botão direito do mouse",
        "Description[sl]": "Meni latte, ki se običajno prikaže z desnim klikom",
        "Description[sv]": "Menyn i Latte som normalt visas vid högerklick",
        "Description[tr]": "Normalde sağ tıklama ile gösterilen Latte menüsü",
        "Description[uk]": "Меню Латте, яке буде показано у відповідь на клацання правою кнопкою миші",
        "Description[x-test]": "xxThe latte menu that normally shows on right-clickxx",
        "Description[zh_CN]": "通常在右键点击时显示的 latte 菜单",
        "EnabledByDefault": true,
        "Icon": "help-contextual",
        "Id": "org.kde.latte.contextmenu",
        "License": "GPL",
        "Name": "Standard Latte Menu",
        "Name[ar]": "قائمة لاتيه قياسية",
        "Name[az]": "Standart Latte menyusu",
        "Name[ca@valencia]": "Menú estàndard de Latte",
        "Name[ca]": "Menú estàndard del Latte",
        "Name[cs]": "Standardní nabídka Latte",
        "Name[de]": "Standard-Latte-Menü",
        "Name[el]": "Προκαθορισμένο Μενού Latte",
        "Name[en_GB]": "Standard Latte Menu",
        "Name[es]": "Menú estándar de Latte",
        "Name[et]": "Latte standardmenüü",
        "Name[eu]": "Latte menu estandarra",
        "Name[fi]": "Latten vakiovalikko",
        "Name[fr]": "Menu standard de Latte",
        "Name[gl]": "Menú estándar de Latte",
        "Name[hsb]": "Standardny meni latte",
        "Name[id]": "Menu Latte Standar",
        "Name[it]": "Menu standard di Latte",
        "Name[ko]": "표준 Latte 메뉴",
        "Name[lt]": "Standartinis Latte meniu",
        "Name[nl]": "Standaard menu van Latte",
        "Name[nn]": "Standard Latte-meny",
        "Name[pl]": "Menu standardowe Latte",
        "Name[pt]": "Menu Normal do Latte",
        "Name[pt_BR]": "Menu padrão do Latte",
        "Name[ru]": "Стандартное меню Latte",
        "Name[sk]": "Obvyklá ponuka Latte",
        "Name[sl]": "Standardni meni Latte",
        "Name[sv]": "Latte standardmeny",
        "Name[tr]": "Standart Latte Menüsü",
        "Name[uk]": "Стандартне меню Латте",
        "Name[x-test]": "xxStandard Latte Menuxx",
        "Name[zh_CN]": "标准 Latte 菜单",
        "Name[zh_TW]": "標準的 Latte 選單",
        "ServiceTypes": [
            "Plasma/ContainmentActions"
        ],
        "Version": "0.1",
        "Website": "https://github.com/psifidotos/Latte-Dock/"
    }
}
